<svg xmlns="http://www.w3.org/2000/svg" xmlns:xlink="http://www.w3.org/1999/xlink" width="12.93" height="12.93" viewBox="0 0 12.93 12.93">
  <defs>
    <clipPath id="clip">
      <use xlink:href="#fill"/>
    </clipPath>
    <clipPath id="clip-2">
      <use xlink:href="#fill-2"/>
    </clipPath>
  </defs>
  <g id="Group_57" data-name="Group 57" transform="translate(-844.272 -73.272)">
    <g id="Rectangle_25" data-name="Rectangle 25" transform="translate(844.272 85.483) rotate(-45)" fill="#04003d" stroke="#04003d" stroke-width="3">
      <rect id="fill" width="17.269" height="1.016" rx="0.508" stroke="none"/>
      <path d="M0,-0.4841585159301758h17.269306182861328M15.769306182861328,0v1.0158414840698242M17.269306182861328,1.5h-17.269306182861328M1.5,1.0158414840698242v-1.0158414840698242" fill="none" clip-path="url(#clip)"/>
    </g>
    <g id="Rectangle_27" data-name="Rectangle 27" transform="translate(844.99 73.272) rotate(45)" fill="#04003d" stroke="#04003d" stroke-width="7">
      <rect id="fill-2" width="17.269" height="1.016" rx="0.508" stroke="none"/>
      <path d="M0,-2.484158515930176h17.269306182861328M13.769306182861328,0v1.0158414840698242M17.269306182861328,3.5h-17.269306182861328M3.5,1.0158414840698242v-1.0158414840698242" fill="none" clip-path="url(#clip-2)"/>
    </g>
  </g>
</svg>
