<svg id="Layer_2" data-name="Layer 2" xmlns="http://www.w3.org/2000/svg" width="168.433" height="126.327" viewBox="0 0 168.433 126.327">
  <g id="Layer_1" data-name="Layer 1">
    <rect id="Rectangle_36" data-name="Rectangle 36" width="168.433" height="126.326" fill="#2a2e43"/>
    <rect id="Rectangle_37" data-name="Rectangle 37" width="155.799" height="113.692" transform="translate(6.313 6.313)" fill="none" stroke="#fff" stroke-miterlimit="10" stroke-width="1.5"/>
    <path id="Path_86" data-name="Path 86" d="M25.39,109.521q0-5.942,3.246-9.44a11.316,11.316,0,0,1,8.735-3.491,11.368,11.368,0,0,1,8.757,3.506q3.253,3.506,3.261,9.425,0,5.942-3.261,9.433a11.43,11.43,0,0,1-8.757,3.5,11.324,11.324,0,0,1-8.735-3.5q-3.238-3.5-3.246-9.433m5.155,0a9.777,9.777,0,0,0,1.8,6.291,6.083,6.083,0,0,0,5.028,2.228,6.18,6.18,0,0,0,5.08-2.228,9.7,9.7,0,0,0,1.82-6.291,9.749,9.749,0,0,0-1.82-6.291A6.172,6.172,0,0,0,37.371,101a6.1,6.1,0,0,0-5.028,2.228,9.771,9.771,0,0,0-1.8,6.3" transform="translate(-6.532 -24.848)" fill="#fff"/>
    <path id="Path_87" data-name="Path 87" d="M71.145,122.742a5.281,5.281,0,0,1-2.139,1.924,6.781,6.781,0,0,1-3.068.661,4.739,4.739,0,0,1-3.61-1.337,5.325,5.325,0,0,1-1.263-3.8,4.59,4.59,0,0,1,1.263-3.483,7.712,7.712,0,0,1,4.189-1.641c.446-.074,1.025-.149,1.753-.238,1.827-.238,2.741-.743,2.741-1.589a1.582,1.582,0,0,0-.609-1.4,3.714,3.714,0,0,0-2.028-.423,3.29,3.29,0,0,0-2.005.52,1.738,1.738,0,0,0-.7,1.486v.238H61.638v-.3a4.739,4.739,0,0,1,1.753-3.862,7.487,7.487,0,0,1,4.835-1.411,9.652,9.652,0,0,1,5.2,1.166,3.788,3.788,0,0,1,1.8,3.38v9.165a4.219,4.219,0,0,0,.2,1.485,1.434,1.434,0,0,0,.7.743v.743H71.673a3.581,3.581,0,0,1-.342-.921,4.985,4.985,0,0,1-.134-1.084m-.074-5.942a11.8,11.8,0,0,1-2.429.787c-.914.2-1.382.3-1.411.312a3.454,3.454,0,0,0-1.6.817,1.909,1.909,0,0,0-.453,1.344,1.82,1.82,0,0,0,.579,1.419,2.228,2.228,0,0,0,1.56.527,3.766,3.766,0,0,0,2.748-.988,3.6,3.6,0,0,0,1-2.689Z" transform="translate(-15.707 -27.805)" fill="#fff"/>
    <path id="Path_88" data-name="Path 88" d="M85.29,122.957V101.12h4.2v11.461l5.132-5.734H99.8l-5.615,5.972,5.957,10.139h-5.17l-3.855-6.863-1.634,1.76v5.1Z" transform="translate(-21.941 -26.013)" fill="#fff"/>
    <path id="Path_89" data-name="Path 89" d="M108,101.12h4.308v3.929H108Zm0,5.727h4.308v16.11H108Z" transform="translate(-27.783 -26.013)" fill="#fff"/>
    <path id="Path_90" data-name="Path 90" d="M118.94,124.778v-16.11h4.226v1.909a5.942,5.942,0,0,1,2.132-1.783,6.388,6.388,0,0,1,2.748-.579,5.288,5.288,0,0,1,3.989,1.382,5.89,5.89,0,0,1,1.329,4.174v10.985h-4.315V115.04a4.048,4.048,0,0,0-.587-2.481,2.28,2.28,0,0,0-1.9-.743,3.238,3.238,0,0,0-2.377.914,3.417,3.417,0,0,0-.891,2.488v9.559Z" transform="translate(-30.598 -27.834)" fill="#fff"/>
    <path id="Path_91" data-name="Path 91" d="M152.285,122.732a5.311,5.311,0,0,1-2.132,1.924,6.8,6.8,0,0,1-3.068.661,4.731,4.731,0,0,1-3.61-1.337,5.288,5.288,0,0,1-1.27-3.8,4.568,4.568,0,0,1,1.27-3.483,7.712,7.712,0,0,1,4.189-1.641c.438-.074,1.025-.149,1.745-.238,1.827-.238,2.741-.743,2.741-1.589a1.567,1.567,0,0,0-.609-1.4,3.647,3.647,0,0,0-2.028-.423,3.268,3.268,0,0,0-2,.52,1.723,1.723,0,0,0-.7,1.485v.238h-4.026v-.3a4.731,4.731,0,0,1,1.745-3.892,7.487,7.487,0,0,1,4.835-1.411,9.675,9.675,0,0,1,5.2,1.166,3.8,3.8,0,0,1,1.8,3.38v9.165a4.033,4.033,0,0,0,.208,1.485,1.434,1.434,0,0,0,.7.743v.743h-4.494a3.869,3.869,0,0,1-.342-.921,5.481,5.481,0,0,1-.134-1.084m-.074-5.942a11.58,11.58,0,0,1-2.421.787c-.914.2-1.389.3-1.419.312a3.424,3.424,0,0,0-1.589.817,1.879,1.879,0,0,0-.453,1.344,1.82,1.82,0,0,0,.579,1.419,2.228,2.228,0,0,0,1.552.527,3.714,3.714,0,0,0,2.748-.988,3.6,3.6,0,0,0,1-2.689Z" transform="translate(-36.58 -27.794)" fill="#fff"/>
    <path id="Path_92" data-name="Path 92" d="M166.32,124.789v-16.11h4v2.756a6.455,6.455,0,0,1,1.968-2.444,4.65,4.65,0,0,1,2.681-.743h.394a.965.965,0,0,1,.23,0v4.367h-1.419a3.558,3.558,0,0,0-2.659.921,3.81,3.81,0,0,0-.884,2.726v8.527Z" transform="translate(-42.786 -27.845)" fill="#fff"/>
    <path id="Path_93" data-name="Path 93" d="M196.347,108.83v16.11h-4.219v-1.916a6.031,6.031,0,0,1-2.147,1.76,6.321,6.321,0,0,1-2.748.587,5.259,5.259,0,0,1-3.981-1.4,5.838,5.838,0,0,1-1.322-4.167V108.83h4.308v9.737a4.018,4.018,0,0,0,.579,2.451,2.3,2.3,0,0,0,1.916.743,3.231,3.231,0,0,0,2.406-.914,3.4,3.4,0,0,0,.9-2.481V108.83Z" transform="translate(-46.802 -27.997)" fill="#fff"/>
    <path id="Path_94" data-name="Path 94" d="M132.428,99.958A3.61,3.61,0,0,1,133.3,97.4a3.446,3.446,0,0,1,4.739,0,4.137,4.137,0,0,1,0,5.11,3.431,3.431,0,0,1-4.739,0,3.6,3.6,0,0,1-.876-2.555m1.389,0a2.659,2.659,0,0,0,.49,1.708,1.864,1.864,0,0,0,2.741,0,3.209,3.209,0,0,0,0-3.409,1.849,1.849,0,0,0-2.741,0,2.637,2.637,0,0,0-.49,1.7" transform="translate(-34.066 -24.814)" fill="#fff"/>
    <path id="Path_95" data-name="Path 95" d="M143.73,96.66H145.1v4.174a1.693,1.693,0,0,0,.312,1.129,1.233,1.233,0,0,0,.973.349,1.27,1.27,0,0,0,.988-.349,1.686,1.686,0,0,0,.3-1.129V96.66h1.374v4.323a2.488,2.488,0,0,1-.668,1.872,3.327,3.327,0,0,1-3.959,0,2.451,2.451,0,0,1-.683-1.879Z" transform="translate(-36.975 -24.866)" fill="#fff"/>
    <path id="Path_96" data-name="Path 96" d="M155.016,103.338V97.878H153.04V96.69h5.3v1.188h-1.961v5.459Z" transform="translate(-39.37 -24.874)" fill="#fff"/>
    <path id="Path_97" data-name="Path 97" d="M162.39,103.322V96.637h2.6a2.919,2.919,0,0,1,2.31.862,3.6,3.6,0,0,1,.743,2.5,4.337,4.337,0,0,1-.282,1.612,2.7,2.7,0,0,1-.8,1.114,2.369,2.369,0,0,1-.906.453,5.414,5.414,0,0,1-1.419.141Zm1.337-1.2h1.1a1.708,1.708,0,0,0,1.374-.5,2.444,2.444,0,0,0,.431-1.619,2.681,2.681,0,0,0-.4-1.634,1.485,1.485,0,0,0-1.24-.527h-1.263Z" transform="translate(-41.775 -24.858)" fill="#fff"/>
    <path id="Path_98" data-name="Path 98" d="M172.188,99.958a3.639,3.639,0,0,1,.876-2.555,3.446,3.446,0,0,1,4.739,0,4.137,4.137,0,0,1,0,5.11,3.432,3.432,0,0,1-4.739,0,3.625,3.625,0,0,1-.876-2.555m1.4,0a2.7,2.7,0,0,0,.483,1.708,1.864,1.864,0,0,0,2.741,0,3.171,3.171,0,0,0,0-3.409,1.849,1.849,0,0,0-2.741,0,2.681,2.681,0,0,0-.483,1.7" transform="translate(-44.295 -24.814)" fill="#fff"/>
    <path id="Path_99" data-name="Path 99" d="M183.158,99.958a3.61,3.61,0,0,1,.876-2.555,3.446,3.446,0,0,1,4.739,0,4.137,4.137,0,0,1,0,5.11,3.432,3.432,0,0,1-4.739,0,3.6,3.6,0,0,1-.876-2.555m1.389,0a2.659,2.659,0,0,0,.49,1.708,1.864,1.864,0,0,0,2.741,0,3.209,3.209,0,0,0,0-3.409,1.849,1.849,0,0,0-2.741,0,2.637,2.637,0,0,0-.49,1.7" transform="translate(-47.117 -24.814)" fill="#fff"/>
    <path id="Path_100" data-name="Path 100" d="M194.51,103.322V96.637h3.224a2.4,2.4,0,0,1,1.612.461,1.812,1.812,0,0,1,.52,1.426,1.879,1.879,0,0,1-.253,1.018,1.285,1.285,0,0,1-.743.55,1.084,1.084,0,0,1,.616.475,2.094,2.094,0,0,1,.208.98v.787h0c0,.4.1.639.26.743v.2h-1.485a1.679,1.679,0,0,1-.111-.342,4.279,4.279,0,0,1-.045-.49V101.7a1.278,1.278,0,0,0-.23-.832,1.062,1.062,0,0,0-.743-.215h-1.485v2.585Zm1.367-3.714h1.612a1.151,1.151,0,0,0,.743-.208,1.036,1.036,0,0,0,.007-1.33,1,1,0,0,0-.743-.223h-1.671Z" transform="translate(-50.038 -24.858)" fill="#fff"/>
    <path id="Path_101" data-name="Path 101" d="M99.825,29.62H99.81l-7.628-3.38-.059,22.3L74.378,34.329l-1.686,8.452-7.881,3.714,17.38,14.112L60.14,65.524l5.682,6.848L65.9,72.3,92.2,62.7,72.744,42.662,96.334,57.4Z" transform="translate(-15.471 -6.75)" fill="#fff"/>
    <path id="Path_102" data-name="Path 102" d="M130.879,60.574l17.655-14.112L140.8,42.815l-2.05-8.452-17.38,13.964-.149-22.446-7.643,3.639,3.179,27.95,23.768-14.632L121.215,62.5l25.848,9.515.416.037,5.363-6.6Z" transform="translate(-29.219 -6.658)" fill="#fff"/>
    <path id="Path_103" data-name="Path 103" d="M113.577,30.72l-.007.052.007-.007Z" transform="translate(-29.216 -7.903)" fill="#c61f2d"/>
    <path id="Path_104" data-name="Path 104" d="M128.753,44.1,104.985,58.73l-3.179-27.95h0L98.316,58.559,74.741,43.83,94.193,63.884,67.9,73.466l19.111-2.1,14.6-1.686,6.254.661h0l13.369,1.419,14.112,1.485-25.892-9.477Z" transform="translate(-17.467 -7.918)" fill="#c61f2d"/>
    <path id="Path_105" data-name="Path 105" d="M20.438,150.919a1.59,1.59,0,0,1-.572.505,1.723,1.723,0,0,1-.743.156,1.991,1.991,0,0,1-1.545-.661A2.5,2.5,0,0,1,17,149.173a2.466,2.466,0,0,1,.587-1.731,2,2,0,0,1,1.567-.654,2.228,2.228,0,0,1,1.4.409,1.619,1.619,0,0,1,.639,1.122h-.973a.854.854,0,0,0-.349-.535,1.174,1.174,0,0,0-.7-.186,1.1,1.1,0,0,0-.9.416,1.842,1.842,0,0,0-.319,1.151,1.8,1.8,0,0,0,.334,1.159,1.144,1.144,0,0,0,.936.423,1.107,1.107,0,0,0,.743-.26,1.188,1.188,0,0,0,.371-.743H19.3v-.78H21.18v2.458h-.624Z" transform="translate(-4.372 -37.761)" fill="#fff"/>
    <path id="Path_106" data-name="Path 106" d="M24.44,151.5V146.96h3.3v.787H25.361v.966h2.176v.78H25.361v1.166h2.488v.839Z" transform="translate(-6.287 -37.806)" fill="#fff"/>
    <path id="Path_107" data-name="Path 107" d="M31.394,151.5V147.77H30.05v-.81h3.617v.81H32.33V151.5Z" transform="translate(-7.73 -37.806)" fill="#fff"/>
    <path id="Path_108" data-name="Path 108" d="M39.27,151.507V147H41.5a1.6,1.6,0,0,1,1.1.319,1.226,1.226,0,0,1,.357.966,1.263,1.263,0,0,1-.171.7.884.884,0,0,1-.5.379.743.743,0,0,1,.416.319,1.53,1.53,0,0,1,.149.668v.535h0q0,.416.178.49v.141h-1.04a.691.691,0,0,1-.074-.238,1.9,1.9,0,0,1,0-.334v-.475a.921.921,0,0,0-.163-.572.743.743,0,0,0-.512-.149H40.206v1.768Zm.936-2.555H41.3a.8.8,0,0,0,.527-.141.587.587,0,0,0,.171-.46.594.594,0,0,0-.163-.446.691.691,0,0,0-.49-.156H40.206Z" transform="translate(-10.102 -37.814)" fill="#fff"/>
    <path id="Path_109" data-name="Path 109" d="M45.94,151.5V146.96h3.3v.787H46.861v.966h2.176v.78H46.861v1.166h2.488v.839Z" transform="translate(-11.818 -37.806)" fill="#fff"/>
    <path id="Path_110" data-name="Path 110" d="M53.079,147h1.077l1.634,4.538h-.958l-.3-.936H52.745l-.3.936H51.46Zm.542.906-.631,1.931h1.263Z" transform="translate(-13.238 -37.816)" fill="#fff"/>
    <path id="Path_111" data-name="Path 111" d="M58.53,151.506V147h1.775a2,2,0,0,1,1.56.564,2.459,2.459,0,0,1,.513,1.708,2.971,2.971,0,0,1-.186,1.1,1.827,1.827,0,0,1-.557.743,1.6,1.6,0,0,1-.616.3,3.64,3.64,0,0,1-.966.1Zm.914-.817h.743a1.2,1.2,0,0,0,.943-.342,1.7,1.7,0,0,0,.29-1.107,1.835,1.835,0,0,0-.275-1.122.988.988,0,0,0-.847-.357h-.854Z" transform="translate(-15.057 -37.814)" fill="#fff"/>
    <path id="Path_112" data-name="Path 112" d="M67.025,151.5h-.936V149.8L64.44,146.96h1.144l.973,1.953.9-1.953h1.062L67.025,149.8Z" transform="translate(-16.577 -37.806)" fill="#fff"/>
    <path id="Path_113" data-name="Path 113" d="M74.1,151.5V146.96h3.164v.787H75.021v1.032h1.968v.787H75.021V151.5Z" transform="translate(-19.062 -37.806)" fill="#fff"/>
    <path id="Path_114" data-name="Path 114" d="M79.519,149.171a2.458,2.458,0,0,1,.6-1.745,2.34,2.34,0,0,1,3.231,0,2.83,2.83,0,0,1,0,3.491,2.34,2.34,0,0,1-3.231,0,2.459,2.459,0,0,1-.6-1.745m.951,0a1.82,1.82,0,0,0,.334,1.166,1.136,1.136,0,0,0,.928.416,1.151,1.151,0,0,0,.943-.416,2.228,2.228,0,0,0,0-2.332,1.151,1.151,0,0,0-.943-.409,1.129,1.129,0,0,0-.928.409,1.82,1.82,0,0,0-.334,1.166" transform="translate(-20.456 -37.759)" fill="#fff"/>
    <path id="Path_115" data-name="Path 115" d="M87.09,151.507V147h2.228a1.6,1.6,0,0,1,1.1.319,1.226,1.226,0,0,1,.357.966,1.33,1.33,0,0,1-.171.7.9.9,0,0,1-.505.379.743.743,0,0,1,.423.319,1.545,1.545,0,0,1,.141.668v.535h0c0,.275.059.438.171.49v.141H89.808a1.293,1.293,0,0,1-.074-.238,1.992,1.992,0,0,1,0-.334v-.475a.876.876,0,0,0-.156-.572.743.743,0,0,0-.52-.149H88.026v1.768Zm.936-2.555h1.1a.8.8,0,0,0,.527-.141.579.579,0,0,0,.163-.46.565.565,0,0,0-.163-.446.661.661,0,0,0-.483-.156H88.026Z" transform="translate(-22.404 -37.814)" fill="#fff"/>
    <path id="Path_116" data-name="Path 116" d="M98.625,151.5h-.936V149.8L96.04,146.96h1.144l.973,1.953.9-1.953h1.062L98.625,149.8Z" transform="translate(-24.707 -37.806)" fill="#fff"/>
    <path id="Path_117" data-name="Path 117" d="M102.259,149.172a2.459,2.459,0,0,1,.6-1.745,2.355,2.355,0,0,1,3.238,0,2.83,2.83,0,0,1,0,3.491,2.355,2.355,0,0,1-3.238,0,2.459,2.459,0,0,1-.6-1.745m.951,0a1.82,1.82,0,0,0,.334,1.166,1.263,1.263,0,0,0,1.872,0,2.228,2.228,0,0,0,0-2.332,1.278,1.278,0,0,0-1.872,0,1.82,1.82,0,0,0-.334,1.166" transform="translate(-26.305 -37.76)" fill="#fff"/>
    <path id="Path_118" data-name="Path 118" d="M109.8,146.94h.943v2.852a1.188,1.188,0,0,0,.208.743.839.839,0,0,0,.668.245.854.854,0,0,0,.676-.245,1.137,1.137,0,0,0,.208-.743V146.94h.936v2.971a1.693,1.693,0,0,1-.468,1.285,1.872,1.872,0,0,1-1.344.446,1.909,1.909,0,0,1-1.359-.446,1.686,1.686,0,0,1-.468-1.285Z" transform="translate(-28.245 -37.801)" fill="#fff"/>
    <path id="Path_119" data-name="Path 119" d="M116.53,151.507V147h2.228a1.6,1.6,0,0,1,1.1.319,1.226,1.226,0,0,1,.357.966,1.33,1.33,0,0,1-.171.7.9.9,0,0,1-.505.379.743.743,0,0,1,.423.319,1.545,1.545,0,0,1,.141.668v.535h0c0,.275.059.438.171.49v.141h-1.025a1.292,1.292,0,0,1-.074-.238,1.991,1.991,0,0,1,0-.334v-.475a.876.876,0,0,0-.156-.572.743.743,0,0,0-.52-.149h-.988v1.768Zm.936-2.555h1.1a.8.8,0,0,0,.527-.141.579.579,0,0,0,.163-.46.565.565,0,0,0-.163-.446.661.661,0,0,0-.483-.156h-1.144Z" transform="translate(-29.978 -37.814)" fill="#fff"/>
    <path id="Path_120" data-name="Path 120" d="M126.23,151.5V146.96h.973l1.842,3.12v-3.12h.921V151.5h-.958l-1.857-3.12v3.12Z" transform="translate(-32.473 -37.806)" fill="#fff"/>
    <path id="Path_121" data-name="Path 121" d="M133.13,151.5V146.96h3.3v.787h-2.377v.966h2.176v.78h-2.176v1.166h2.488v.839Z" transform="translate(-34.248 -37.806)" fill="#fff"/>
    <path id="Path_122" data-name="Path 122" d="M138.61,151.5l1.426-2.317-1.426-2.221h1.077l.928,1.582.921-1.582h1.084l-1.426,2.213,1.426,2.325h-1.077l-.928-1.575-.928,1.575Z" transform="translate(-35.658 -37.806)" fill="#fff"/>
    <path id="Path_123" data-name="Path 123" d="M146,151.5V147.77H144.66v-.81h3.617v.81H146.94V151.5Z" transform="translate(-37.214 -37.806)" fill="#fff"/>
    <path id="Path_124" data-name="Path 124" d="M154.867,147h1.084l1.634,4.538h-.98l-.3-.936h-1.745l-.3.936h-.98Zm.542.906-.624,1.931h1.255Z" transform="translate(-39.429 -37.816)" fill="#fff"/>
    <path id="Path_125" data-name="Path 125" d="M160.31,151.506V147h1.783a2,2,0,0,1,1.56.564,2.458,2.458,0,0,1,.512,1.708,2.97,2.97,0,0,1-.193,1.1,1.879,1.879,0,0,1-.55.743,1.656,1.656,0,0,1-.616.3,3.64,3.64,0,0,1-.966.1Zm.921-.817h.743a1.189,1.189,0,0,0,.943-.342,1.7,1.7,0,0,0,.29-1.107,1.887,1.887,0,0,0-.267-1.122.988.988,0,0,0-.847-.357h-.862Z" transform="translate(-41.24 -37.814)" fill="#fff"/>
    <path id="Path_126" data-name="Path 126" d="M167.927,151.5l-1.567-4.538h1.032l.966,3.394.988-3.394h1.018l-1.545,4.538Z" transform="translate(-42.797 -37.806)" fill="#fff"/>
    <path id="Path_127" data-name="Path 127" d="M172.95,151.5V146.96h3.3v.787h-2.377v.966h2.169v.78h-2.169v1.166h2.488v.839Z" transform="translate(-44.492 -37.806)" fill="#fff"/>
    <path id="Path_128" data-name="Path 128" d="M179.1,151.5V146.96h.973l1.849,3.12v-3.12h.921V151.5h-.966l-1.857-3.12v3.12Z" transform="translate(-46.074 -37.806)" fill="#fff"/>
    <path id="Path_129" data-name="Path 129" d="M186.8,151.5V147.77H185.46v-.81h3.617v.81H187.74V151.5Z" transform="translate(-47.71 -37.806)" fill="#fff"/>
    <path id="Path_130" data-name="Path 130" d="M191.619,146.94h.943v2.852a1.151,1.151,0,0,0,.208.743.839.839,0,0,0,.668.245.854.854,0,0,0,.676-.245,1.137,1.137,0,0,0,.208-.743V146.94h.936v2.971a1.693,1.693,0,0,1-.468,1.285,1.872,1.872,0,0,1-1.344.446,1.909,1.909,0,0,1-1.359-.446,1.686,1.686,0,0,1-.468-1.285Z" transform="translate(-49.293 -37.801)" fill="#fff"/>
    <path id="Path_131" data-name="Path 131" d="M198.35,151.507V147h2.228a1.6,1.6,0,0,1,1.1.319,1.225,1.225,0,0,1,.357.966,1.329,1.329,0,0,1-.171.7.9.9,0,0,1-.505.379.743.743,0,0,1,.423.319,1.544,1.544,0,0,1,.141.668v.535h0q0,.416.178.49v.141h-1.04a.9.9,0,0,1-.074-.238,1.991,1.991,0,0,1,0-.334v-.475a.876.876,0,0,0-.156-.572.743.743,0,0,0-.52-.149h-.988v1.768Zm.936-2.555h1.1a.81.81,0,0,0,.527-.141.579.579,0,0,0,.163-.46.565.565,0,0,0-.163-.446.661.661,0,0,0-.483-.156h-1.144Z" transform="translate(-51.026 -37.814)" fill="#fff"/>
    <path id="Path_132" data-name="Path 132" d="M205.02,151.5V146.96h3.3v.787h-2.377v.966h2.176v.78h-2.176v1.166h2.488v.839Z" transform="translate(-52.742 -37.806)" fill="#fff"/>
    <path id="Path_133" data-name="Path 133" d="M193.137,20h.906v.542a.446.446,0,0,0,.141.364.609.609,0,0,0,.409.126.483.483,0,0,0,.4-.149,1.032,1.032,0,0,0,.111-.572V17.12h.936v3.209a2.607,2.607,0,0,1-.052.631.877.877,0,0,1-.163.357,1.1,1.1,0,0,1-.49.349,2.013,2.013,0,0,1-.743.119,1.9,1.9,0,0,1-.676-.1,1.188,1.188,0,0,1-.5-.312A.958.958,0,0,1,193.2,21a2.37,2.37,0,0,1-.067-.676Z" transform="translate(-49.682 -4.404)" fill="#fff"/>
    <path id="Path_134" data-name="Path 134" d="M199.666,20.045v1.612H198.7V17.119h2.013a1.55,1.55,0,0,1,1.092,2.548,1.337,1.337,0,0,1-1.025.379Zm0-.787h.906a.743.743,0,0,0,.535-.156.646.646,0,0,0,.163-.5.587.587,0,0,0-.654-.661h-.951Z" transform="translate(-51.116 -4.403)" fill="#fff"/>
    <path id="Path_135" data-name="Path 135" d="M204.79,21.658V17.12h.98l1.842,3.12V17.12h.921v4.538h-.966l-1.857-3.12v3.12Z" transform="translate(-52.683 -4.404)" fill="#fff"/>
    <path id="Path_136" data-name="Path 136" d="M16.97,21.658V17.12h.943v1.693h1.872V17.12h.943v4.538h-.943V19.645H17.913v2.013Z" transform="translate(-4.366 -4.404)" fill="#fff"/>
    <path id="Path_137" data-name="Path 137" d="M23.71,21.658V17.12h.936v1.864l1.775-1.864h1.166l-1.812,1.835,1.976,2.7H26.607l-1.478-2.072-.483.475v1.6Z" transform="translate(-6.099 -4.404)" fill="#fff"/>
    <path id="Path_138" data-name="Path 138" d="M30.12,21.656V17.118H31.9a2,2,0,0,1,1.56.564,2.473,2.473,0,0,1,.512,1.708,2.971,2.971,0,0,1-.223,1.1,1.768,1.768,0,0,1-.55.743,1.79,1.79,0,0,1-.616.312,4.048,4.048,0,0,1-.966.089Zm.914-.817h.743a1.159,1.159,0,0,0,.936-.342,1.641,1.641,0,0,0,.3-1.107,1.857,1.857,0,0,0-.275-1.114,1,1,0,0,0-.847-.364h-.854Z" transform="translate(-7.748 -4.402)" fill="#fff"/>
  </g>
</svg>
