<svg xmlns="http://www.w3.org/2000/svg" width="18.849" height="13.253" viewBox="0 0 18.849 13.253">
  <path id="right-arrow" d="M12.693.2a.668.668,0,1,0-.95.94l4.817,4.817H.665A.662.662,0,0,0,0,6.622.669.669,0,0,0,.665,7.3H16.559L11.743,12.1a.682.682,0,0,0,0,.95.666.666,0,0,0,.95,0L18.65,7.1a.654.654,0,0,0,0-.94Z" transform="translate(18.849 13.253) rotate(180)" fill="#fff"/>
</svg>
