<svg id="Component_1_1" data-name="Component 1 – 1" xmlns="http://www.w3.org/2000/svg" width="412.348" height="186.24" viewBox="0 0 412.348 186.24">
  <path id="Path_241" data-name="Path 241" d="M172.476,0C136.945,127.778,0,185.105,0,185.105S82.441,162.96,164.648,162.96c94.517,0,133.86,22.116,133.86,22.116S198.7,115.673,172.476,0" transform="translate(113.84)" fill="#fff"/>
  <path id="Path_242" data-name="Path 242" d="M242.937,12.4C207.987,148.006,77.59,162.556,77.59,162.556s79.705-3.288,123.3-23.28C248.233,117.684,264.151,95.1,264.151,95.1S250.5,80.756,242.937,12.4" transform="translate(-77.59 23.684)" fill="#fff"/>
</svg>
